{
    "name": "Practice",
    "fields": [
        {
            "fieldName": "code",
            "fieldType": "String",
            "fieldValidateRules": [
                "required"
            ]
        },
        {
            "fieldName": "description",
            "fieldType": "String"
        }
    ],
    "relationships": [
        {
            "relationshipType": "one-to-many",
            "otherEntityName": "synonym",
            "otherEntityRelationshipName": "practice",
            "relationshipName": "synonyms"
        }
    ],
    "changelogDate": "20190809155408",
    "entityTableName": "practice",
    "dto": "no",
    "pagination": "infinite-scroll",
    "service": "serviceImpl",
    "jpaMetamodelFiltering": false,
    "fluentMethods": true,
    "clientRootFolder": "",
    "applications": "*"
}